EESchema Schematic File Version 2
LIBS:power
LIBS:device
LIBS:transistors
LIBS:conn
LIBS:linear
LIBS:regul
LIBS:74xx
LIBS:cmos4000
LIBS:adc-dac
LIBS:memory
LIBS:xilinx
LIBS:microcontrollers
LIBS:dsp
LIBS:microchip
LIBS:analog_switches
LIBS:motorola
LIBS:texas
LIBS:intel
LIBS:audio
LIBS:interface
LIBS:digital-audio
LIBS:philips
LIBS:display
LIBS:cypress
LIBS:siliconi
LIBS:opto
LIBS:atmel
LIBS:contrib
LIBS:valves
LIBS:arduino
LIBS:Bosch
LIBS:Zilog
LIBS:FTDI
LIBS:nodemcu
LIBS:ESP8266
LIBS:sensors
EELAYER 25 0
EELAYER END
$Descr A4 11693 8268
encoding utf-8
Sheet 1 1
Title ""
Date ""
Rev ""
Comp ""
Comment1 ""
Comment2 ""
Comment3 ""
Comment4 ""
$EndDescr
$Comp
L ARDUINO_NANO ARDUINO?
U 1 1 58839A05
P 5750 3650
F 0 "ARDUINO?" H 5750 4500 70  0000 C CNN
F 1 "ARDUINO_NANO" V 5750 3650 70  0000 C CNN
F 2 "" H 5750 3650 60  0000 C CNN
F 3 "" H 5750 3650 60  0000 C CNN
	1    5750 3650
	1    0    0    -1  
$EndComp
$Comp
L BMP280 U?
U 1 1 58839BE5
P 7850 3700
F 0 "U?" H 7850 4300 60  0000 C CNN
F 1 "BMP280" H 7850 4200 60  0000 C CNN
F 2 "manuf:BOSCH_BMP280" H 7750 4200 60  0001 C CNN
F 3 "https://ae-bst.resource.bosch.com/media/_tech/media/datasheets/BST-BMP280-DS001-12.pdf" H 7850 4300 60  0001 C CNN
F 4 "IC BOSCH BMP280" H 7950 4400 60  0001 C CNN "BOM"
	1    7850 3700
	-1   0    0    1   
$EndComp
$Comp
L LTV-847 U?
U 1 1 58839C83
P 3400 4250
F 0 "U?" H 3200 4950 50  0000 L CNN
F 1 "LTV-847" H 3400 4950 50  0000 L CNN
F 2 "DIP-16" H 3200 3650 50  0000 L CIN
F 3 "" H 3400 4150 50  0000 L CNN
	1    3400 4250
	1    0    0    -1  
$EndComp
$Comp
L ESP-01v090 U?
U 1 1 58839CD2
P 4100 5650
F 0 "U?" H 4100 5550 50  0000 C CNN
F 1 "ESP-01v090" H 4100 5750 50  0000 C CNN
F 2 "" H 4100 5650 50  0001 C CNN
F 3 "" H 4100 5650 50  0001 C CNN
	1    4100 5650
	1    0    0    -1  
$EndComp
$Comp
L DHT22_Temperature_Humidity TH?
U 1 1 58839D90
P 6300 4800
F 0 "TH?" H 6300 5850 60  0000 C CNN
F 1 "DHT22_Temperature_Humidity" H 6300 5750 60  0000 C CNN
F 2 "" H 6300 4800 60  0000 C CNN
F 3 "" H 6300 4800 60  0000 C CNN
	1    6300 4800
	-1   0    0    1   
$EndComp
$Comp
L LM1117-3.3 U?
U 1 1 58839E84
P 1950 2000
F 0 "U?" H 2050 1750 50  0000 C CNN
F 1 "LM1117-3.3" H 1950 2250 50  0000 C CNN
F 2 "" H 1950 2000 50  0000 C CNN
F 3 "" H 1950 2000 50  0000 C CNN
	1    1950 2000
	1    0    0    -1  
$EndComp
$Comp
L LM7805CT U?
U 1 1 5883A000
P 1100 2050
F 0 "U?" H 900 2250 50  0000 C CNN
F 1 "LM7805CT" H 1100 2250 50  0000 L CNN
F 2 "TO-220" H 1100 2150 50  0000 C CIN
F 3 "" H 1100 2050 50  0000 C CNN
	1    1100 2050
	1    0    0    -1  
$EndComp
Wire Wire Line
	5450 4300 5150 4300
Wire Bus Line
	1400 1700 1500 1700
Wire Bus Line
	1500 1700 9500 1700
Connection ~ 1500 1700
Wire Wire Line
	1500 2000 1500 1700
Wire Wire Line
	1500 2000 1650 2000
Wire Bus Line
	2250 2000 9500 2000
Wire Bus Line
	900  6300 9750 6300
Text Notes 9650 1700 0    60   ~ 0
5V
Text Notes 9600 2000 0    60   ~ 0
3.3v
Text Notes 9850 6300 0    60   ~ 0
0v
Wire Wire Line
	6350 3600 7150 3600
Wire Wire Line
	6350 3500 6800 3500
Wire Wire Line
	6800 3500 6800 3800
Wire Wire Line
	6800 3800 7200 3800
Wire Wire Line
	6350 4800 6350 4600
Wire Wire Line
	6350 4600 5150 4600
Wire Wire Line
	5150 4600 5150 4300
Wire Wire Line
	8550 4000 8900 4000
Wire Wire Line
	8900 4000 8900 2000
Wire Wire Line
	8550 3400 8700 3400
Wire Wire Line
	8700 3400 8700 3600
Wire Wire Line
	8700 3600 8700 6300
Wire Wire Line
	8550 3600 8700 3600
Connection ~ 8700 3600
$Comp
L R_PHOTO R?
U 1 1 5883CE21
P 7650 2850
F 0 "R?" H 7700 2900 50  0000 L CNN
F 1 "R_PHOTO" H 7700 2850 50  0000 L TNN
F 2 "" V 7700 2600 50  0000 L CNN
F 3 "" H 7650 2800 50  0000 C CNN
	1    7650 2850
	1    0    0    -1  
$EndComp
$Comp
L LTV-847 U?
U 1 1 5883D07A
P 3400 2850
F 0 "U?" H 3200 3550 50  0000 L CNN
F 1 "LTV-847" H 3400 3550 50  0000 L CNN
F 2 "DIP-16" H 3200 2250 50  0000 L CIN
F 3 "" H 3400 2750 50  0000 L CNN
	1    3400 2850
	1    0    0    -1  
$EndComp
$EndSCHEMATC
